{
  "IcoMoonType": "selection",
  "icons": [
    {
      "icon": {
        "paths": [
          "M1016.723 508.357c0 280.758-227.599 508.357-508.357 508.357s-508.357-227.599-508.357-508.357c0-280.758 227.599-508.357 508.357-508.357s508.357 227.599 508.357 508.357z",
          "M819.753 365.341c-21.785 9.66-45.219 16.194-69.795 19.112 25.093-15.034 44.349-38.821 53.438-67.212-23.48 13.928-49.496 24.032-77.162 29.479-22.166-23.606-53.746-38.359-88.716-38.359-67.095 0-121.512 54.417-121.512 121.512 0 9.524 1.078 18.794 3.163 27.693-100.986-5.066-190.527-53.438-250.463-126.976-10.457 17.943-16.456 38.83-16.456 61.096 0 42.147 21.468 79.355 54.055 101.14-19.909-0.625-38.658-6.090-55.033-15.215-0.009 0.517-0.009 1.033-0.009 1.541 0 58.875 41.902 107.982 97.479 119.137-10.186 2.791-20.942 4.268-32.007 4.268-7.848 0-15.451-0.752-22.863-2.166 15.46 48.264 60.325 83.397 113.51 84.385-41.594 32.596-93.981 52.016-150.927 52.016-9.787 0-19.483-0.571-28.971-1.704 53.746 34.49 117.633 54.598 186.25 54.598 223.504 0 345.731-185.154 345.731-345.74 0-5.265-0.118-10.512-0.353-15.713 23.76-17.127 44.358-38.522 60.643-62.89v0z"
        ],
        "attrs": [
          {
            "fill": "rgb(52, 117, 243)"
          },
          {
            "fill": "rgb(255, 255, 255)"
          }
        ],
        "isMulticolor": true,
        "isMulticolor2": false,
        "grid": 0,
        "tags": [
          "twitter"
        ],
        "colorPermutations": {
          "11151311911148148147121616882121923125512292292291231236237123711397123920674124723016112552552551501821221521172431667496193712461": [
            {
              "f": 3
            },
            {
              "f": 14
            }
          ]
        }
      },
      "attrs": [
        {
          "fill": "rgb(52, 117, 243)"
        },
        {
          "fill": "rgb(255, 255, 255)"
        }
      ],
      "properties": {
        "order": 3,
        "id": 15,
        "name": "twitter",
        "prevSize": 32,
        "code": 59648,
        "codes": [
          59648,
          59649
        ]
      },
      "setIdx": 0,
      "setId": 0,
      "iconIdx": 0
    },
    {
      "icon": {
        "paths": [
          "M1007.796 512.871c0 278.295-225.603 503.898-503.898 503.898s-503.898-225.603-503.898-503.898c0-278.295 225.603-503.898 503.898-503.898s503.898 225.603 503.898 503.898z",
          "M804.972 553.418v207.746h-120.446v-193.823c0-48.667-17.39-81.902-61-81.902-33.28 0-53.050 22.375-61.781 44.041-3.171 7.743-3.988 18.495-3.988 29.355v202.321h-120.455c0 0 1.617-328.273 0-362.253h120.464v51.335c-0.243 0.404-0.584 0.799-0.799 1.186h0.799v-1.186c16.007-24.63 44.553-59.841 108.553-59.841 79.243 0 138.653 51.775 138.653 163.023v0zM311.296 224.283c-41.203 0-68.159 27.046-68.159 62.581 0 34.78 26.175 62.608 66.578 62.608h0.781c42.011 0 68.132-27.828 68.132-62.608-0.799-35.535-26.121-62.581-67.332-62.581v0zM250.296 761.164h120.41v-362.262h-120.41v362.262z"
        ],
        "attrs": [
          {
            "fill": "rgb(52, 117, 243)"
          },
          {
            "fill": "rgb(255, 255, 255)"
          }
        ],
        "isMulticolor": true,
        "isMulticolor2": false,
        "grid": 0,
        "tags": [
          "linkedin"
        ],
        "colorPermutations": {
          "11151311911148148147121616882121923125512292292291231236237123711397123920674124723016112552552551501821221521172431667496193712461": [
            {
              "f": 3
            },
            {
              "f": 14
            }
          ]
        }
      },
      "attrs": [
        {
          "fill": "rgb(52, 117, 243)"
        },
        {
          "fill": "rgb(255, 255, 255)"
        }
      ],
      "properties": {
        "order": 4,
        "id": 14,
        "name": "linkedin",
        "prevSize": 32,
        "code": 59650,
        "codes": [
          59650,
          59651
        ]
      },
      "setIdx": 0,
      "setId": 0,
      "iconIdx": 1
    },
    {
      "icon": {
        "paths": [
          "M662.812 271.701h-304.378c-48.583 0-88.11 39.526-88.11 88.11v304.378c0 48.583 39.526 88.121 88.11 88.121h304.378c48.583 0 88.121-39.526 88.121-88.121v-304.378c0-48.583-39.526-88.11-88.121-88.11zM510.623 670.219c-87.233 0-158.208-70.975-158.208-158.219 0-87.233 70.975-158.208 158.208-158.208 87.245 0 158.219 70.975 158.219 158.208s-70.986 158.219-158.219 158.219zM673.929 386.503c-20.651 0-37.444-16.794-37.444-37.433s16.794-37.433 37.444-37.433c20.639 0 37.433 16.794 37.433 37.433s-16.794 37.433-37.433 37.433z",
          "M510.623 420.648c-50.358 0-91.364 40.983-91.364 91.341 0 50.381 41.006 91.375 91.364 91.375 50.381 0 91.352-40.994 91.352-91.375 0-50.347-40.983-91.341-91.352-91.341z",
          "M510.623 0c-281.998 0-510.623 228.625-510.623 510.623s228.625 510.623 510.623 510.623c281.998 0 510.623-228.625 510.623-510.623s-228.625-510.623-510.623-510.623zM817.778 664.189c0 85.458-69.507 154.965-154.965 154.965h-304.378c-85.447 0-154.965-69.507-154.965-154.965v-304.378c0-85.447 69.518-154.965 154.965-154.965h304.378c85.458 0 154.965 69.518 154.965 154.965v304.378z"
        ],
        "attrs": [
          {
            "fill": "rgb(52, 117, 243)"
          },
          {
            "fill": "rgb(52, 117, 243)"
          },
          {
            "fill": "rgb(52, 117, 243)"
          }
        ],
        "isMulticolor": false,
        "isMulticolor2": false,
        "grid": 0,
        "tags": [
          "instagram"
        ],
        "colorPermutations": {
          "11151311911148148147121616882121923125512292292291231236237123711397123920674124723016112552552551501821221521172431667496193712461": [
            {
              "f": 3
            },
            {
              "f": 3
            },
            {
              "f": 3
            }
          ]
        }
      },
      "attrs": [
        {
          "fill": "rgb(52, 117, 243)"
        },
        {
          "fill": "rgb(52, 117, 243)"
        },
        {
          "fill": "rgb(52, 117, 243)"
        }
      ],
      "properties": {
        "order": 5,
        "id": 13,
        "name": "instagram",
        "prevSize": 32,
        "code": 59652
      },
      "setIdx": 0,
      "setId": 0,
      "iconIdx": 2
    },
    {
      "icon": {
        "paths": [
          "M690.716 951.501l-265.543-265.543c-93.985-93.985-93.985-246.365 0-340.35l263.688-263.688"
        ],
        "attrs": [
          {
            "fill": "none",
            "stroke": "rgb(255, 255, 255)",
            "strokeLinejoin": "miter",
            "strokeLinecap": "round",
            "strokeMiterlimit": "4",
            "strokeWidth": 122.88
          }
        ],
        "isMulticolor": false,
        "isMulticolor2": false,
        "grid": 0,
        "tags": [
          "arrow_left"
        ],
        "colorPermutations": {
          "11151311911148148147121616882121923125512292292291231236237123711397123920674124723016112552552551501821221521172431667496193712461": [
            {
              "s": 14
            }
          ]
        }
      },
      "attrs": [
        {
          "fill": "none",
          "stroke": "rgb(255, 255, 255)",
          "strokeLinejoin": "miter",
          "strokeLinecap": "round",
          "strokeMiterlimit": "4",
          "strokeWidth": 122.88
        }
      ],
      "properties": {
        "order": 22,
        "id": 12,
        "name": "arrow_left",
        "prevSize": 32,
        "code": 59653
      },
      "setIdx": 0,
      "setId": 0,
      "iconIdx": 3
    },
    {
      "icon": {
        "paths": [
          "M507.082 1022.889v-0.014h-446.336c0-321.806 282.631-321.73 345.349-405.877l7.177-38.371c-88.116-44.656-150.319-152.318-150.319-278.236 0-165.889 107.91-300.392 240.99-300.392s240.99 134.502 240.99 300.392c0 124.846-61.098 231.835-148.039 277.198l8.173 43.605c68.81 80.067 342.039 85.287 342.039 401.694h-440.025z"
        ],
        "attrs": [
          {
            "fill": "rgb(52, 117, 243)"
          }
        ],
        "isMulticolor": false,
        "isMulticolor2": false,
        "grid": 0,
        "tags": [
          "blueuser"
        ],
        "colorPermutations": {
          "11151311911148148147121616882121923125512292292291231236237123711397123920674124723016112552552551501821221521172431667496193712461": [
            {
              "f": 3
            }
          ]
        }
      },
      "attrs": [
        {
          "fill": "rgb(52, 117, 243)"
        }
      ],
      "properties": {
        "order": 7,
        "id": 11,
        "name": "blueuser",
        "prevSize": 32,
        "code": 59654
      },
      "setIdx": 0,
      "setId": 0,
      "iconIdx": 4
    },
    {
      "icon": {
        "paths": [
          "M10.667 213.333h1002.667v810.667h-1002.667v-810.667z",
          "M572.321 30.364l-18.304 30.098c99.951 65.138 291.404 171.040 293.328 172.107l16.158-31.36c-1.923-1.049-192.295-106.364-291.181-170.844z",
          "M160.498 201.209l16.158 31.36c1.923-1.067 193.377-106.969 293.328-172.107l-18.304-30.098c-98.886 64.462-289.258 169.796-291.181 170.844z",
          "M431.881 486.4c0 11.782-9.551 21.333-21.333 21.333s-21.333-9.551-21.333-21.333c0-11.782 9.551-21.333 21.333-21.333s21.333 9.551 21.333 21.333z",
          "M554.667 486.4c0 11.782-9.551 21.333-21.333 21.333s-21.333-9.551-21.333-21.333c0-11.782 9.551-21.333 21.333-21.333s21.333 9.551 21.333 21.333z",
          "M677.452 486.4c0 11.782-9.551 21.333-21.333 21.333s-21.333-9.551-21.333-21.333c0-11.782 9.551-21.333 21.333-21.333s21.333 9.551 21.333 21.333z",
          "M800.237 486.4c0 11.782-9.551 21.333-21.333 21.333s-21.333-9.551-21.333-21.333c0-11.782 9.551-21.333 21.333-21.333s21.333 9.551 21.333 21.333z",
          "M923.022 486.4c0 11.782-9.551 21.333-21.333 21.333s-21.333-9.551-21.333-21.333c0-11.782 9.551-21.333 21.333-21.333s21.333 9.551 21.333 21.333z",
          "M186.311 622.933c0 11.782-9.551 21.333-21.333 21.333s-21.333-9.551-21.333-21.333c0-11.782 9.551-21.333 21.333-21.333s21.333 9.551 21.333 21.333z",
          "M309.096 622.933c0 11.782-9.551 21.333-21.333 21.333s-21.333-9.551-21.333-21.333c0-11.782 9.551-21.333 21.333-21.333s21.333 9.551 21.333 21.333z",
          "M186.311 486.4c0 11.782-9.551 21.333-21.333 21.333s-21.333-9.551-21.333-21.333c0-11.782 9.551-21.333 21.333-21.333s21.333 9.551 21.333 21.333z",
          "M309.096 486.4c0 11.782-9.551 21.333-21.333 21.333s-21.333-9.551-21.333-21.333c0-11.782 9.551-21.333 21.333-21.333s21.333 9.551 21.333 21.333z",
          "M431.881 622.933c0 11.782-9.551 21.333-21.333 21.333s-21.333-9.551-21.333-21.333c0-11.782 9.551-21.333 21.333-21.333s21.333 9.551 21.333 21.333z",
          "M554.667 622.933c0 11.782-9.551 21.333-21.333 21.333s-21.333-9.551-21.333-21.333c0-11.782 9.551-21.333 21.333-21.333s21.333 9.551 21.333 21.333z",
          "M677.452 622.933c0 11.782-9.551 21.333-21.333 21.333s-21.333-9.551-21.333-21.333c0-11.782 9.551-21.333 21.333-21.333s21.333 9.551 21.333 21.333z",
          "M800.237 622.933c0 11.782-9.551 21.333-21.333 21.333s-21.333-9.551-21.333-21.333c0-11.782 9.551-21.333 21.333-21.333s21.333 9.551 21.333 21.333z",
          "M923.022 622.933c0 11.782-9.551 21.333-21.333 21.333s-21.333-9.551-21.333-21.333c0-11.782 9.551-21.333 21.333-21.333s21.333 9.551 21.333 21.333z",
          "M186.311 742.4c0 11.782-9.551 21.333-21.333 21.333s-21.333-9.551-21.333-21.333c0-11.782 9.551-21.333 21.333-21.333s21.333 9.551 21.333 21.333z",
          "M309.096 742.4c0 11.782-9.551 21.333-21.333 21.333s-21.333-9.551-21.333-21.333c0-11.782 9.551-21.333 21.333-21.333s21.333 9.551 21.333 21.333z",
          "M431.881 742.4c0 11.782-9.551 21.333-21.333 21.333s-21.333-9.551-21.333-21.333c0-11.782 9.551-21.333 21.333-21.333s21.333 9.551 21.333 21.333z",
          "M554.667 742.4c0 11.782-9.551 21.333-21.333 21.333s-21.333-9.551-21.333-21.333c0-11.782 9.551-21.333 21.333-21.333s21.333 9.551 21.333 21.333z",
          "M677.452 742.4c0 11.782-9.551 21.333-21.333 21.333s-21.333-9.551-21.333-21.333c0-11.782 9.551-21.333 21.333-21.333s21.333 9.551 21.333 21.333z",
          "M800.237 742.4c0 11.782-9.551 21.333-21.333 21.333s-21.333-9.551-21.333-21.333c0-11.782 9.551-21.333 21.333-21.333s21.333 9.551 21.333 21.333z",
          "M923.022 742.4c0 11.782-9.551 21.333-21.333 21.333s-21.333-9.551-21.333-21.333c0-11.782 9.551-21.333 21.333-21.333s21.333 9.551 21.333 21.333z",
          "M800.237 878.933c0 11.782-9.551 21.333-21.333 21.333s-21.333-9.551-21.333-21.333c0-11.782 9.551-21.333 21.333-21.333s21.333 9.551 21.333 21.333z",
          "M923.022 878.933c0 11.782-9.551 21.333-21.333 21.333s-21.333-9.551-21.333-21.333c0-11.782 9.551-21.333 21.333-21.333s21.333 9.551 21.333 21.333z",
          "M186.311 878.933c0 11.782-9.551 21.333-21.333 21.333s-21.333-9.551-21.333-21.333c0-11.782 9.551-21.333 21.333-21.333s21.333 9.551 21.333 21.333z",
          "M309.096 878.933c0 11.782-9.551 21.333-21.333 21.333s-21.333-9.551-21.333-21.333c0-11.782 9.551-21.333 21.333-21.333s21.333 9.551 21.333 21.333z",
          "M431.881 878.933c0 11.782-9.551 21.333-21.333 21.333s-21.333-9.551-21.333-21.333c0-11.782 9.551-21.333 21.333-21.333s21.333 9.551 21.333 21.333z",
          "M554.667 878.933c0 11.782-9.551 21.333-21.333 21.333s-21.333-9.551-21.333-21.333c0-11.782 9.551-21.333 21.333-21.333s21.333 9.551 21.333 21.333z",
          "M677.452 878.933c0 11.782-9.551 21.333-21.333 21.333s-21.333-9.551-21.333-21.333c0-11.782 9.551-21.333 21.333-21.333s21.333 9.551 21.333 21.333z",
          "M608 85.333c0 35.346-33.429 64-74.667 64s-74.667-28.654-74.667-64c0-35.346 33.429-64 74.667-64s74.667 28.654 74.667 64z",
          "M10.667 213.333h1002.667v128h-1002.667v-128z"
        ],
        "attrs": [
          {
            "fill": "rgb(231, 236, 237)"
          },
          {
            "fill": "rgb(115, 131, 191)"
          },
          {
            "fill": "rgb(115, 131, 191)"
          },
          {
            "fill": "rgb(66, 74, 96)"
          },
          {
            "fill": "rgb(66, 74, 96)"
          },
          {
            "fill": "rgb(66, 74, 96)"
          },
          {
            "fill": "rgb(66, 74, 96)"
          },
          {
            "fill": "rgb(66, 74, 96)"
          },
          {
            "fill": "rgb(239, 206, 74)"
          },
          {
            "fill": "rgb(237, 113, 97)"
          },
          {
            "fill": "rgb(148, 148, 147)"
          },
          {
            "fill": "rgb(148, 148, 147)"
          },
          {
            "fill": "rgb(66, 74, 96)"
          },
          {
            "fill": "rgb(66, 74, 96)"
          },
          {
            "fill": "rgb(66, 74, 96)"
          },
          {
            "fill": "rgb(66, 74, 96)"
          },
          {
            "fill": "rgb(66, 74, 96)"
          },
          {
            "fill": "rgb(239, 206, 74)"
          },
          {
            "fill": "rgb(237, 113, 97)"
          },
          {
            "fill": "rgb(66, 74, 96)"
          },
          {
            "fill": "rgb(66, 74, 96)"
          },
          {
            "fill": "rgb(66, 74, 96)"
          },
          {
            "fill": "rgb(66, 74, 96)"
          },
          {
            "fill": "rgb(66, 74, 96)"
          },
          {
            "fill": "rgb(148, 148, 147)"
          },
          {
            "fill": "rgb(148, 148, 147)"
          },
          {
            "fill": "rgb(239, 206, 74)"
          },
          {
            "fill": "rgb(237, 113, 97)"
          },
          {
            "fill": "rgb(66, 74, 96)"
          },
          {
            "fill": "rgb(66, 74, 96)"
          },
          {
            "fill": "rgb(66, 74, 96)"
          },
          {
            "fill": "rgb(247, 230, 161)",
            "stroke": "rgb(216, 168, 82)",
            "strokeLinejoin": "round",
            "strokeLinecap": "butt",
            "strokeMiterlimit": "4",
            "strokeWidth": 42.666666666666664
          },
          {
            "fill": "rgb(66, 74, 96)"
          }
        ],
        "isMulticolor": true,
        "isMulticolor2": true,
        "grid": 0,
        "tags": [
          "calendar"
        ],
        "colorPermutations": {
          "11151311911148148147121616882121923125512292292291231236237123711397123920674124723016112552552551501821221521172431667496193712461": [
            {
              "f": 12
            },
            {
              "f": 6
            },
            {
              "f": 6
            },
            {
              "f": 1
            },
            {
              "f": 1
            },
            {
              "f": 1
            },
            {
              "f": 1
            },
            {
              "f": 1
            },
            {
              "f": 7
            },
            {
              "f": 9
            },
            {
              "f": 4
            },
            {
              "f": 4
            },
            {
              "f": 1
            },
            {
              "f": 1
            },
            {
              "f": 1
            },
            {
              "f": 1
            },
            {
              "f": 1
            },
            {
              "f": 7
            },
            {
              "f": 9
            },
            {
              "f": 1
            },
            {
              "f": 1
            },
            {
              "f": 1
            },
            {
              "f": 1
            },
            {
              "f": 1
            },
            {
              "f": 4
            },
            {
              "f": 4
            },
            {
              "f": 7
            },
            {
              "f": 9
            },
            {
              "f": 1
            },
            {
              "f": 1
            },
            {
              "f": 1
            },
            {
              "f": 10,
              "s": 5
            },
            {
              "f": 1
            }
          ]
        }
      },
      "attrs": [
        {
          "fill": "rgb(231, 236, 237)"
        },
        {
          "fill": "rgb(115, 131, 191)"
        },
        {
          "fill": "rgb(115, 131, 191)"
        },
        {
          "fill": "rgb(66, 74, 96)"
        },
        {
          "fill": "rgb(66, 74, 96)"
        },
        {
          "fill": "rgb(66, 74, 96)"
        },
        {
          "fill": "rgb(66, 74, 96)"
        },
        {
          "fill": "rgb(66, 74, 96)"
        },
        {
          "fill": "rgb(239, 206, 74)"
        },
        {
          "fill": "rgb(237, 113, 97)"
        },
        {
          "fill": "rgb(148, 148, 147)"
        },
        {
          "fill": "rgb(148, 148, 147)"
        },
        {
          "fill": "rgb(66, 74, 96)"
        },
        {
          "fill": "rgb(66, 74, 96)"
        },
        {
          "fill": "rgb(66, 74, 96)"
        },
        {
          "fill": "rgb(66, 74, 96)"
        },
        {
          "fill": "rgb(66, 74, 96)"
        },
        {
          "fill": "rgb(239, 206, 74)"
        },
        {
          "fill": "rgb(237, 113, 97)"
        },
        {
          "fill": "rgb(66, 74, 96)"
        },
        {
          "fill": "rgb(66, 74, 96)"
        },
        {
          "fill": "rgb(66, 74, 96)"
        },
        {
          "fill": "rgb(66, 74, 96)"
        },
        {
          "fill": "rgb(66, 74, 96)"
        },
        {
          "fill": "rgb(148, 148, 147)"
        },
        {
          "fill": "rgb(148, 148, 147)"
        },
        {
          "fill": "rgb(239, 206, 74)"
        },
        {
          "fill": "rgb(237, 113, 97)"
        },
        {
          "fill": "rgb(66, 74, 96)"
        },
        {
          "fill": "rgb(66, 74, 96)"
        },
        {
          "fill": "rgb(66, 74, 96)"
        },
        {
          "fill": "rgb(247, 230, 161)",
          "stroke": "rgb(216, 168, 82)",
          "strokeLinejoin": "round",
          "strokeLinecap": "butt",
          "strokeMiterlimit": "4",
          "strokeWidth": 42.666666666666664
        },
        {
          "fill": "rgb(66, 74, 96)"
        }
      ],
      "properties": {
        "order": 21,
        "id": 10,
        "name": "calendar",
        "prevSize": 32,
        "code": 59655,
        "codes": [
          59655,
          59656,
          59657,
          59658,
          59659,
          59660,
          59661,
          59662,
          59663,
          59664,
          59665,
          59666,
          59667,
          59668,
          59669,
          59670,
          59671,
          59672,
          59673,
          59674,
          59675,
          59676,
          59677,
          59678,
          59679,
          59680,
          59681,
          59682,
          59683,
          59684,
          59685,
          59686,
          59687
        ]
      },
      "setIdx": 0,
      "setId": 0,
      "iconIdx": 5
    },
    {
      "icon": {
        "paths": [
          "M369.311 184.656h285.377c46.356 0 83.934 37.579 83.934 83.934v285.377c0 46.356-37.579 83.934-83.934 83.934h-285.377c-46.356 0-83.934-37.579-83.934-83.934v-285.377c0-46.356 37.579-83.934 83.934-83.934z",
          "M369.311 184.656h285.377c46.356 0 83.934 37.579 83.934 83.934v285.377c0 46.356-37.579 83.934-83.934 83.934h-285.377c-46.356 0-83.934-37.579-83.934-83.934v-285.377c0-46.356 37.579-83.934 83.934-83.934z",
          "M601.706 349.722l-90.554 98.948c-13.798 13.798-36.168 13.798-49.966 0l-38.711-38.711"
        ],
        "attrs": [
          {
            "fill": "rgb(0, 0, 0)"
          },
          {
            "fill": "rgb(50, 182, 122)"
          },
          {
            "fill": "none",
            "stroke": "rgb(255, 255, 255)",
            "strokeLinejoin": "miter",
            "strokeLinecap": "round",
            "strokeMiterlimit": "4",
            "strokeWidth": 41.9672131147541
          }
        ],
        "isMulticolor": true,
        "isMulticolor2": true,
        "grid": 0,
        "tags": [
          "check"
        ],
        "colorPermutations": {
          "11151311911148148147121616882121923125512292292291231236237123711397123920674124723016112552552551501821221521172431667496193712461": [
            {
              "f": 0
            },
            {
              "f": 2
            },
            {
              "s": 14
            }
          ]
        }
      },
      "attrs": [
        {
          "fill": "rgb(0, 0, 0)"
        },
        {
          "fill": "rgb(50, 182, 122)"
        },
        {
          "fill": "none",
          "stroke": "rgb(255, 255, 255)",
          "strokeLinejoin": "miter",
          "strokeLinecap": "round",
          "strokeMiterlimit": "4",
          "strokeWidth": 41.9672131147541
        }
      ],
      "properties": {
        "order": 20,
        "id": 9,
        "name": "check",
        "prevSize": 32,
        "code": 59688,
        "codes": [
          59688,
          59689,
          59690
        ]
      },
      "setIdx": 0,
      "setId": 0,
      "iconIdx": 6
    },
    {
      "icon": {
        "paths": [
          "M987.326 678.108c-14.241 0-25.791 11.55-25.791 25.791v98.549c0 56.883-46.279 103.162-103.162 103.162h-703.629c-56.883 0-103.162-46.279-103.162-103.162v-98.549c0-14.241-11.546-25.791-25.791-25.791s-25.791 11.548-25.791 25.791v98.549c0 85.325 69.418 154.744 154.744 154.744h703.629c85.325 0 154.744-69.418 154.744-154.744v-98.549c0-14.243-11.546-25.791-25.791-25.791z",
          "M830.742 779.724h-648.367c-14.241 0-25.791 11.55-25.791 25.791s11.546 25.791 25.791 25.791h648.365c14.245 0 25.791-11.546 25.791-25.791 0-14.241-11.546-25.791-25.789-25.791z",
          "M767.592 416.882c-9.488-10.62-25.791-11.544-36.417-2.054l-198.828 177.622v-499.849c0-14.241-11.546-25.791-25.791-25.791-14.241 0-25.791 11.546-25.791 25.791v499.849l-198.828-177.62c-10.62-9.49-26.925-8.564-36.417 2.054-9.486 10.624-8.57 26.929 2.052 36.417l216.027 192.981c12.242 10.94 27.596 16.408 42.955 16.408 15.353 0 30.708-5.467 42.955-16.402l216.027-192.987c10.626-9.494 11.544-25.799 2.056-36.419z"
        ],
        "attrs": [
          {
            "fill": "rgb(255, 255, 255)"
          },
          {
            "fill": "rgb(255, 255, 255)"
          },
          {
            "fill": "rgb(255, 255, 255)"
          }
        ],
        "isMulticolor": false,
        "isMulticolor2": false,
        "grid": 0,
        "tags": [
          "download"
        ],
        "colorPermutations": {
          "11151311911148148147121616882121923125512292292291231236237123711397123920674124723016112552552551501821221521172431667496193712461": [
            {
              "f": 14
            },
            {
              "f": 14
            },
            {
              "f": 14
            }
          ]
        }
      },
      "attrs": [
        {
          "fill": "rgb(255, 255, 255)"
        },
        {
          "fill": "rgb(255, 255, 255)"
        },
        {
          "fill": "rgb(255, 255, 255)"
        }
      ],
      "properties": {
        "order": 10,
        "id": 8,
        "name": "download",
        "prevSize": 32,
        "code": 59691
      },
      "setIdx": 0,
      "setId": 0,
      "iconIdx": 7
    },
    {
      "icon": {
        "paths": [
          "M512 0c-16.568 0-30 13.432-30 30s13.432 30 30 30c249.234 0 452 202.766 452 452s-202.766 452-452 452c-249.234 0-452-202.766-452-452 0-120.714 50.74-237.264 138.034-322.072v52.072c0 16.568 13.432 30 30 30s29.966-13.432 29.966-30v-120c0-16.568-13.398-30-29.966-30h-121.034c-16.568 0-30 13.432-30 30s13.432 29.8 30 29.8h44.024c-97.008 96.844-151.024 226.358-151.024 360.2 0 281.48 230.418 512 512 512 281.48 0 512-230.418 512-512 0-281.48-230.418-512-512-512z",
          "M519.211 187.493c-182.897 0-331.718 148.869-331.718 331.718 0 182.909 148.881 331.718 331.718 331.718 182.897 0 331.718-148.869 331.718-331.718 0-182.909-148.881-331.718-331.718-331.718zM731.167 688.52l-20.042-20.044c-11.775-11.777-30.87-11.777-42.647 0s-11.777 30.87 0 42.647l20.044 20.044c-39.052 31.256-86.884 51.959-139.155 57.765v-28.471c0-16.654-13.502-30.156-30.156-30.156s-30.156 13.502-30.156 30.156v28.471c-52.271-5.806-100.103-26.509-139.153-57.765l20.044-20.044c11.777-11.777 11.777-30.87 0-42.647-11.775-11.777-30.87-11.777-42.647 0l-20.044 20.044c-31.256-39.050-51.961-86.882-57.765-139.153h28.471c16.654 0 30.156-13.502 30.156-30.156s-13.502-30.156-30.156-30.156h-28.471c5.806-52.271 26.509-100.103 57.765-139.153l20.044 20.044c11.775 11.777 30.872 11.777 42.647 0 11.777-11.777 11.777-30.87 0-42.647l-20.044-20.044c39.050-31.256 86.882-51.959 139.153-57.765v28.471c0 16.654 13.502 30.156 30.156 30.156s30.156-13.502 30.156-30.156v-28.471c52.271 5.806 100.103 26.509 139.153 57.765l-20.044 20.044c-11.777 11.777-11.777 30.87 0 42.647 11.775 11.777 30.872 11.777 42.647 0l20.042-20.044c31.258 39.050 51.963 86.882 57.767 139.153h-28.471c-16.654 0-30.156 13.502-30.156 30.156s13.502 29.955 30.156 29.955h28.471c-5.806 52.271-26.509 100.304-57.765 139.354z",
          "M582.875 553.427l-49.242-52.318v-109.898c0-16.926-12.915-30.648-28.845-30.648s-28.845 13.722-28.845 30.648v122.592c0 8.128 3.040 15.923 8.45 21.67l57.69 61.296c11.263 11.969 29.529 11.969 40.792 0 11.265-11.969 11.265-31.373 0-43.342z"
        ],
        "attrs": [
          {
            "fill": "rgb(52, 117, 243)"
          },
          {
            "fill": "rgb(52, 117, 243)"
          },
          {
            "fill": "rgb(52, 117, 243)"
          }
        ],
        "isMulticolor": false,
        "isMulticolor2": false,
        "grid": 0,
        "tags": [
          "history"
        ],
        "colorPermutations": {
          "11151311911148148147121616882121923125512292292291231236237123711397123920674124723016112552552551501821221521172431667496193712461": [
            {
              "f": 3
            },
            {
              "f": 3
            },
            {
              "f": 3
            }
          ]
        }
      },
      "attrs": [
        {
          "fill": "rgb(52, 117, 243)"
        },
        {
          "fill": "rgb(52, 117, 243)"
        },
        {
          "fill": "rgb(52, 117, 243)"
        }
      ],
      "properties": {
        "order": 11,
        "id": 7,
        "name": "history",
        "prevSize": 32,
        "code": 59692
      },
      "setIdx": 0,
      "setId": 0,
      "iconIdx": 8
    },
    {
      "icon": {
        "paths": [
          "M101.824 891.396c2.29 0 4.599-0.469 6.823-1.462 54.546-24.162 146.66-36.737 273.879-37.399l12.346 25.152c4.24 8.594 14.518 12.106 22.948 7.775 8.446-4.297 11.885-14.734 7.643-23.326l-17.083-34.79c-2.908-5.897-8.823-9.619-15.303-9.619-139.342 0-236.86 13.185-298.093 40.304-8.653 3.844-12.602 14.090-8.841 22.908 2.807 6.543 9.083 10.457 15.682 10.457z",
          "M989.868 921.533h-34.134v-85.39c0-4.525-1.81-8.88-5-12.074l-102.536-102.587c3.208-6.678 5.138-14.071 5.138-21.962 0-28.246-22.972-51.233-51.2-51.233s-51.2 22.987-51.2 51.233c0 28.246 22.972 51.233 51.2 51.233 7.884 0 15.258-1.929 21.93-5.123l97.536 97.581v78.321h-887.468c-18.826 0-34.134 15.318-34.134 34.156v51.233c0 9.426 7.646 17.077 17.066 17.077s17.066-7.651 17.066-17.077v-51.233h955.736v51.233c0 9.426 7.628 17.077 17.066 17.077s17.066-7.651 17.066-17.077v-51.233c0.002-18.838-15.324-34.156-34.132-34.156zM802.136 716.6c-9.42 0-17.066-7.667-17.066-17.077s7.646-17.077 17.066-17.077c9.42 0 17.066 7.667 17.066 17.077s-7.646 17.077-17.066 17.077z",
          "M245.18 510.18c12.457 32.372 53.67 136.755 83.574 181.527l2.699 4.075c21.94 33.207 58.642 88.793 182.388 88.793 123.728 0 160.448-55.585 182.388-88.793l2.699-4.075c29.902-44.772 71.099-149.155 83.574-181.527 22.317-5.543 38.907-25.704 38.907-49.667v-68.224c0-22.24-14.285-41.208-34.175-48.252v-88.197c0-67.338-35.525-191.727-166.924-203.735-0.256-8.051-2.921-14.531-5.895-19.324-16.796-27.101-63.957-32.782-100.574-32.782-304.048 0-307.568 287.053-307.568 289.953 0 9.414 7.637 17.039 17.052 17.039h0.034c9.415 0 17.052-7.607 17.086-17.021 0.034-10.438 3.879-255.859 273.393-255.859 48.322 0 67.683 10.438 71.51 16.612 0.531 0.869 1.982 3.206-1.368 9.876-2.649 5.287-2.359 11.565 0.751 16.596 3.128 5.015 8.612 8.085 14.541 8.085 151.495 0 153.766 163.618 153.784 170.56v102.336c0 9.414 7.637 17.055 17.086 17.055 9.431 0 17.086 7.657 17.086 17.055v68.226c0 9.398-7.655 17.055-17.086 17.055-7.125 0-13.498 4.417-16.011 11.069-0.495 1.347-50.953 135.204-83.642 184.137l-2.801 4.229c-20.471 31.009-48.528 73.46-153.852 73.46-105.342 0-133.382-42.452-153.852-73.46l-2.801-4.229c-32.687-48.934-83.146-182.79-83.658-184.137-2.495-6.652-8.869-11.069-15.993-11.069-9.415 0-17.086-7.657-17.086-17.055v-68.224c0-4.623 1.846-8.819 4.852-11.889 6.203 13.901 18.865 26.404 40.138 28.518l58.472 43.767c4.563 33.223 32.877 58.995 67.411 58.995h34.175c37.693 0 68.348-30.599 68.348-68.224 0 37.625 30.655 68.224 68.348 68.224h34.175c34.515 0 62.863-25.772 67.409-59.013l62.453-46.733c7.553-5.646 9.091-16.34 3.418-23.879-5.657-7.539-16.37-9.090-23.923-3.412l-43.554 32.612c-6.51-20.791-25.751-36.022-48.716-36.022h-68.348c-28.262 0-51.261 22.958-51.261 51.168 0-28.21-23-51.168-51.261-51.168h-68.348c-22.947 0-42.189 15.231-48.714 36.022l-32.603-24.407c13.448-32.44 25.631-80.42 29.083-114.105 53.859-0.955 209.677-7.521 278.998-50.708 15.721 60.582 66.179 111.565 68.724 114.089 6.68 6.668 17.481 6.668 24.161 0 6.68-6.67 6.68-17.449 0-24.117-0.633-0.632-63.342-63.926-63.342-124.391 0-7.657-5.126-14.395-12.525-16.442-7.365-2.047-15.276 1.091-19.205 7.657-24.88 41.36-186.267 59.953-292.925 59.953-9.431 0-17.086 7.641-17.086 17.055 0 27.683-13.106 82.978-27.048 117.005-5.451-3.274-6.988-9.38-7.125-14.669 0-9.414-7.655-17.055-17.086-17.055-28.262 0-51.261 22.958-51.261 51.168v68.224c-0.004 23.963 16.588 44.125 38.903 49.667zM548.017 426.401c0-9.398 7.655-17.055 17.086-17.055h68.348c9.431 0 17.086 7.657 17.086 17.055v17.055c0 18.812-15.326 34.113-34.175 34.113h-34.175c-18.847 0-34.175-15.298-34.175-34.113v-17.055h0.004zM377.144 426.401c0-9.398 7.671-17.055 17.086-17.055h68.35c9.415 0 17.086 7.657 17.086 17.055v17.055c0 18.812-15.326 34.113-34.175 34.113h-34.173c-18.847 0-34.175-15.298-34.175-34.113v-17.055z",
          "M596.719 616.417c0.018-9.472-7.54-17.189-16.877-17.242-0.322 0-30.621-0.344-60.259-15.384-4.762-2.407-10.388-2.407-15.15 0-29.638 15.042-59.953 15.384-60.208 15.384-9.353 0-16.945 7.701-16.945 17.189s7.592 17.189 16.945 17.189c1.44 0 33.451-0.189 67.781-15.419 34.315 15.229 66.342 15.419 67.781 15.419 9.339 0 16.897-7.667 16.931-17.137z",
          "M631.020 821.442c-6.422 0.033-12.312 3.549-15.251 9.139l-17.172 32.775c-4.311 8.235-0.944 18.33 7.488 22.531 2.489 1.238 5.17 1.824 7.796 1.824 6.251 0 12.278-3.331 15.319-9.124l12.383-23.669c93.868 0.251 169.464 7.097 224.864 20.356 9.239 2.226 18.513-3.28 20.763-12.252 2.266-8.988-3.349-18.045-12.57-20.254-60.143-14.414-141.714-21.914-243.62-21.327z",
          "M493.583 835.223v34.994c0 9.657 7.426 17.496 16.576 17.496s16.576-7.839 16.576-17.496v-34.994c0-9.657-7.426-17.496-16.576-17.496s-16.576 7.839-16.576 17.496z",
          "M496.345 648.288c-9.657 0-17.496 7.426-17.496 16.576s7.839 16.576 17.496 16.576h34.994c9.676 0 17.496-7.426 17.496-16.576s-7.82-16.576-17.496-16.576h-34.994z"
        ],
        "attrs": [
          {
            "fill": "rgb(52, 117, 243)"
          },
          {
            "fill": "rgb(52, 117, 243)"
          },
          {
            "fill": "rgb(52, 117, 243)"
          },
          {
            "fill": "rgb(52, 117, 243)"
          },
          {
            "fill": "rgb(52, 117, 243)"
          },
          {
            "fill": "rgb(52, 117, 243)"
          },
          {
            "fill": "rgb(52, 117, 243)"
          }
        ],
        "isMulticolor": false,
        "isMulticolor2": false,
        "grid": 0,
        "tags": [
          "man"
        ],
        "colorPermutations": {
          "11151311911148148147121616882121923125512292292291231236237123711397123920674124723016112552552551501821221521172431667496193712461": [
            {
              "f": 3
            },
            {
              "f": 3
            },
            {
              "f": 3
            },
            {
              "f": 3
            },
            {
              "f": 3
            },
            {
              "f": 3
            },
            {
              "f": 3
            }
          ]
        }
      },
      "attrs": [
        {
          "fill": "rgb(52, 117, 243)"
        },
        {
          "fill": "rgb(52, 117, 243)"
        },
        {
          "fill": "rgb(52, 117, 243)"
        },
        {
          "fill": "rgb(52, 117, 243)"
        },
        {
          "fill": "rgb(52, 117, 243)"
        },
        {
          "fill": "rgb(52, 117, 243)"
        },
        {
          "fill": "rgb(52, 117, 243)"
        }
      ],
      "properties": {
        "order": 19,
        "id": 6,
        "name": "man",
        "prevSize": 32,
        "code": 59693
      },
      "setIdx": 0,
      "setId": 0,
      "iconIdx": 9
    },
    {
      "icon": {
        "paths": [
          "M546.034 1005.278c238.712-270.824 358.068-475.216 358.068-613.176 0-216.552-175.55-392.101-392.101-392.101s-392.101 175.55-392.101 392.101c0 137.96 119.356 342.352 358.068 613.176l0-0c16.568 18.796 45.235 20.603 64.032 4.035 1.429-1.259 2.776-2.607 4.035-4.035z",
          "M336.468 344.585h-13.894l-40.649 81.865h13.779l40.764-81.865zM369.574 426.451c22.934 0 34.689-14.818 37.8-27.054l-14.867-4.378c-2.19 7.409-8.989 16.277-22.934 16.277-13.138 0-25.354-9.317-25.354-26.268 0-18.073 12.907-26.605 25.123-26.605 14.175 0 20.513 8.419 22.473 16.053l14.982-4.602c-3.227-12.909-14.867-26.38-37.454-26.38-21.896 0-41.603 16.165-41.603 41.535s19.015 41.422 41.834 41.422zM439.010 413.352c7.374 0 14.181-5.313 14.181-15.827s-6.807-15.827-14.181-15.827c-7.374 0-14.181 5.313-14.181 15.827 0 10.401 6.807 15.827 14.181 15.827zM439.010 367.508c16.782 0 29.454 12.308 29.454 29.472 0 17.051-12.672 29.472-29.454 29.472s-29.454-12.421-29.454-29.472c0-17.164 12.672-29.472 29.454-29.472zM531.272 343.494v71.573c0 3.72 0.231 7.777 0.462 10.031h-14.669c-0.231-1.127-0.578-3.832-0.578-6.425-2.541 4.396-8.316 7.777-15.94 7.777-16.171 0-27.721-12.398-27.721-29.193 0-16.231 11.204-28.967 27.259-28.967 9.818 0 14.438 3.945 16.055 6.876v-31.672h15.131zM488.099 397.411c0 10.020 5.836 15.941 13.692 15.941 7.632 0 13.58-5.921 13.58-16.055 0-10.020-5.948-15.6-13.58-15.6s-13.692 5.693-13.692 15.713zM549.188 391.521h25.090c-0.228-5.514-3.878-10.915-12.545-10.915-7.869 0-12.203 5.852-12.545 10.915zM576.015 405.109l12.733 3.726c-2.868 9.598-11.815 17.615-25.695 17.615-15.486 0-29.136-10.953-29.136-29.697 0-17.728 13.306-29.246 27.76-29.246 17.436 0 27.875 10.953 27.875 28.794 0 2.145-0.229 4.404-0.229 4.63h-40.378c0.344 7.34 6.653 12.647 14.224 12.647 7.112 0 11.012-3.5 12.848-8.469zM608.085 425.359v-32.306c0-6.057 3.902-10.881 10.557-10.881 6.885 0 9.983 4.487 9.983 10.432v32.755h15.147v-32.306c0-5.945 3.902-10.881 10.442-10.881 7 0 9.983 4.487 9.983 10.432v32.755h14.803v-35.783c0-14.807-9.983-20.977-20.426-20.977-7.459 0-13.426 2.468-17.901 9.198-2.869-5.945-9.065-9.198-16.754-9.198-6.197 0-13.426 2.917-16.524 8.301v-6.73h-14.574v55.19h15.262zM704.707 447.19l35.384-77.499h-16.261l-13.856 32.536-15.001-32.536h-17.062l23.933 48.578-13.283 28.921h16.146zM725.91 416.081c0 5.698 4.644 10.37 10.307 10.37 5.776 0 10.42-4.672 10.42-10.37s-4.644-10.37-10.42-10.37c-5.663 0-10.307 4.672-10.307 10.37z"
        ],
        "attrs": [
          {
            "fill": "rgb(52, 117, 243)"
          },
          {
            "fill": "rgb(255, 255, 255)"
          }
        ],
        "isMulticolor": true,
        "isMulticolor2": false,
        "grid": 0,
        "tags": [
          "pin"
        ],
        "colorPermutations": {
          "11151311911148148147121616882121923125512292292291231236237123711397123920674124723016112552552551501821221521172431667496193712461": [
            {
              "f": 3
            },
            {
              "f": 14
            }
          ]
        }
      },
      "attrs": [
        {
          "fill": "rgb(52, 117, 243)"
        },
        {
          "fill": "rgb(255, 255, 255)"
        }
      ],
      "properties": {
        "order": 13,
        "id": 5,
        "name": "pin",
        "prevSize": 32,
        "code": 59694,
        "codes": [
          59694,
          59695
        ]
      },
      "setIdx": 0,
      "setId": 0,
      "iconIdx": 10
    },
    {
      "icon": {
        "paths": [
          "M434.687 86.521l377.497 218.248c51.035 29.506 68.341 94.544 38.654 145.267-9.317 15.919-22.637 29.157-38.654 38.417l-377.497 218.248c-51.035 29.506-116.474 12.306-146.161-38.417-9.495-16.223-14.497-34.657-14.497-53.425v-436.495c0-58.681 47.863-106.251 106.905-106.251 18.884 0 37.431 4.971 53.754 14.408z",
          "M434.687 86.521l377.497 218.248c51.035 29.506 68.341 94.544 38.654 145.267-9.317 15.919-22.637 29.157-38.654 38.417l-377.497 218.248c-51.035 29.506-116.474 12.306-146.161-38.417-9.495-16.223-14.497-34.657-14.497-53.425v-436.495c0-58.681 47.863-106.251 106.905-106.251 18.884 0 37.431 4.971 53.754 14.408z"
        ],
        "attrs": [
          {
            "fill": "rgb(0, 0, 0)"
          },
          {
            "fill": "rgb(93, 71, 246)"
          }
        ],
        "isMulticolor": true,
        "isMulticolor2": false,
        "grid": 0,
        "tags": [
          "play"
        ],
        "colorPermutations": {
          "11151311911148148147121616882121923125512292292291231236237123711397123920674124723016112552552551501821221521172431667496193712461": [
            {
              "f": 0
            },
            {
              "f": 8
            }
          ]
        }
      },
      "attrs": [
        {
          "fill": "rgb(0, 0, 0)"
        },
        {
          "fill": "rgb(93, 71, 246)"
        }
      ],
      "properties": {
        "order": 17,
        "id": 4,
        "name": "play",
        "prevSize": 32,
        "code": 59696,
        "codes": [
          59696,
          59697
        ]
      },
      "setIdx": 0,
      "setId": 0,
      "iconIdx": 11
    },
    {
      "icon": {
        "paths": [
          "M875.055 537.6c0 53.76-43.985 97.745-97.745 97.745h-307.898l48.873 224.815c0 4.887 0 9.775 0 14.662 0 19.549-9.775 39.098-19.547 53.76l-53.762 48.873-322.56-322.56c-19.549-14.662-29.324-39.098-29.324-68.422v-488.727c0-53.76 43.985-97.745 97.745-97.745h439.855c39.098 0 73.309 24.436 87.971 58.647l146.618 346.998c4.887 9.775 4.887 24.436 4.887 34.211v97.745h4.887c0-4.889 0-0.002 0-0.002z"
        ],
        "attrs": [
          {
            "fill": "rgb(255, 255, 255)"
          }
        ],
        "isMulticolor": false,
        "isMulticolor2": false,
        "grid": 0,
        "tags": [
          "tdown"
        ],
        "colorPermutations": {
          "11151311911148148147121616882121923125512292292291231236237123711397123920674124723016112552552551501821221521172431667496193712461": [
            {
              "f": 14
            }
          ]
        }
      },
      "attrs": [
        {
          "fill": "rgb(255, 255, 255)"
        }
      ],
      "properties": {
        "order": 14,
        "id": 3,
        "name": "tdown",
        "prevSize": 32,
        "code": 59698
      },
      "setIdx": 0,
      "setId": 0,
      "iconIdx": 12
    },
    {
      "icon": {
        "paths": [
          "M884.364 460.8c0-56.32-41.891-102.4-93.091-102.4h-293.236l46.545-235.52c0-5.12 0-10.24 0-15.36 0-20.48-9.309-40.96-18.616-56.32l-51.202-51.2-307.2 337.92c-18.618 15.36-27.927 40.96-27.927 71.68v512c0 56.32 41.891 102.4 93.091 102.4h418.909c37.236 0 69.818-25.6 83.782-61.44l139.636-363.522c4.655-10.24 4.655-25.6 4.655-35.84v-102.4h4.655c0 5.122 0 0.002 0 0.002z"
        ],
        "attrs": [
          {
            "fill": "rgb(255, 255, 255)"
          }
        ],
        "isMulticolor": false,
        "isMulticolor2": false,
        "grid": 0,
        "tags": [
          "tup"
        ],
        "colorPermutations": {
          "11151311911148148147121616882121923125512292292291231236237123711397123920674124723016112552552551501821221521172431667496193712461": [
            {
              "f": 14
            }
          ]
        }
      },
      "attrs": [
        {
          "fill": "rgb(255, 255, 255)"
        }
      ],
      "properties": {
        "order": 16,
        "id": 2,
        "name": "tup",
        "prevSize": 32,
        "code": 59699
      },
      "setIdx": 0,
      "setId": 0,
      "iconIdx": 13
    },
    {
      "icon": {
        "paths": [
          "M516.143 1017.519v-0.014h-441.982c0-318.667 279.874-318.592 341.981-401.918l7.107-37.997c-87.257-44.22-148.853-150.832-148.853-275.521 0-164.271 106.857-297.461 238.64-297.461s238.64 133.19 238.64 297.461c0 123.628-60.502 229.574-146.595 274.494l8.093 43.179c68.139 79.286 338.702 84.455 338.702 397.776h-435.732z"
        ],
        "attrs": [
          {
            "fill": "rgb(255, 255, 255)"
          }
        ],
        "isMulticolor": false,
        "isMulticolor2": false,
        "grid": 0,
        "tags": [
          "whiteuser"
        ],
        "colorPermutations": {
          "11151311911148148147121616882121923125512292292291231236237123711397123920674124723016112552552551501821221521172431667496193712461": [
            {
              "f": 14
            }
          ]
        }
      },
      "attrs": [
        {
          "fill": "rgb(255, 255, 255)"
        }
      ],
      "properties": {
        "order": 15,
        "id": 1,
        "name": "whiteuser",
        "prevSize": 32,
        "code": 59700
      },
      "setIdx": 0,
      "setId": 0,
      "iconIdx": 14
    },
    {
      "icon": {
        "paths": [
          "M1024 512c0 282.77-229.23 512-512 512s-512-229.23-512-512c0-282.77 229.23-512 512-512s512 229.23 512 512z",
          "M760.526 218.108c-4.972-3.38-11.352-3.892-16.798-1.358l-550.174 256.116c-9.666 4.502-15.774 14.344-15.532 25.002 0.234 10.452 6.56 19.84 16.13 24.030l507.226 220.914c16.936 7.698 36.878-4.42 37.966-22.906l28.628-486.682c0.35-5.996-2.476-11.74-7.446-15.116z",
          "M343.262 586.842l34.282 229.158 380.792-599.136z",
          "M743.732 216.75l-550.178 256.116c-9.474 4.41-15.652 14.242-15.538 24.69 0.116 10.466 6.552 20.148 16.134 24.342l149.114 64.942 415.072-369.976c-4.572-2.204-9.93-2.29-14.604-0.114z",
          "M422.836 621.498l-45.292 194.502 380.792-599.136z",
          "M760.526 218.108c-0.702-0.478-1.44-0.884-2.19-1.244l-335.5 404.634 278.54 121.314c16.936 7.698 36.878-4.42 37.966-22.906l28.628-486.682c0.352-5.996-2.474-11.74-7.444-15.116z"
        ],
        "attrs": [
          {
            "fill": "rgb(52, 117, 243)"
          },
          {
            "fill": "rgb(229, 229, 229)"
          },
          {
            "fill": "rgb(52, 117, 243)"
          },
          {
            "fill": "rgb(255, 255, 255)"
          },
          {
            "fill": "rgb(219, 231, 255)"
          },
          {
            "fill": "rgb(255, 255, 255)"
          }
        ],
        "isMulticolor": true,
        "isMulticolor2": false,
        "grid": 0,
        "tags": [
          "telegram"
        ],
        "colorPermutations": {
          "11151311911148148147121616882121923125512292292291231236237123711397123920674124723016112552552551501821221521172431667496193712461": [
            {
              "f": 3
            },
            {
              "f": 11
            },
            {
              "f": 3
            },
            {
              "f": 14
            },
            {
              "f": 13
            },
            {
              "f": 14
            }
          ]
        }
      },
      "attrs": [
        {
          "fill": "rgb(52, 117, 243)"
        },
        {
          "fill": "rgb(229, 229, 229)"
        },
        {
          "fill": "rgb(52, 117, 243)"
        },
        {
          "fill": "rgb(255, 255, 255)"
        },
        {
          "fill": "rgb(219, 231, 255)"
        },
        {
          "fill": "rgb(255, 255, 255)"
        }
      ],
      "properties": {
        "order": 18,
        "id": 0,
        "name": "telegram",
        "prevSize": 32,
        "code": 59701,
        "codes": [
          59701,
          59702,
          59703,
          59704,
          59705,
          59706
        ]
      },
      "setIdx": 0,
      "setId": 0,
      "iconIdx": 15
    }
  ],
  "height": 1024,
  "metadata": {
    "name": "icomoon"
  },
  "preferences": {
    "showGlyphs": true,
    "showQuickUse": true,
    "showQuickUse2": true,
    "showSVGs": true,
    "fontPref": {
      "prefix": "icon-",
      "metadata": {
        "fontFamily": "icomoon"
      },
      "metrics": {
        "emSize": 1024,
        "baseline": 6.25,
        "whitespace": 50
      },
      "embed": false
    },
    "imagePref": {
      "prefix": "icon-",
      "png": true,
      "useClassSelector": true,
      "color": 0,
      "bgColor": 16777215,
      "classSelector": ".icon"
    },
    "historySize": 50,
    "showCodes": true,
    "gridSize": 16
  }
}